{
    "name": "userLogin",
    "base": "User",
    "idInjection": true,
    "options": {
        "validateUpsert": true
    },
    "properties": {
        "userName": {
            "type": "string",
            "required": true
        },
        "userRole": {
            "type": "string",
            "required": true
        },
        "password": {
            "type": "string"
        },
        "email": {
            "type": "string"
        }
    },
    "validations": [],
    "relations": {
        "managedStudentAccount": {
            "type": "hasMany",
            "model": "studentAccount",
            "foreignKey": "docentId"
        },
        "authWithStudentAccount": {
            "type": "hasMany",
            "model": "studentAccount",
            "foreignKey": "studentId"
        },
        "documents": {
            "type": "hasMany",
            "model": "document",
            "foreignKey": "userId"
        }
    },
    "acls": [],
    "methods": {}
}
